%!PS

/deepeq {
    2 dict begin
    /a exch def
    /b exch def
    a type b type eq {
        a type /dicttype eq {
            a length b length eq {
                <<
                    a {
                        pop
                        true
                    } forall
                    b {
                        pop
                        true
                    } forall
                >>
                true exch
                {
                    pop
                    dup a exch known {
                        dup b exch known {
                            dup a exch get exch b exch get deepeq not {
                                pop false
                            } if
                        } {
                            false
                        } ifelse
                    } {
                        false
                    } ifelse
                } forall
            } {
                false
            } ifelse
        } {
            a type dup /arraytype eq exch /stringtype eq or {
                a length b length eq {
                    true
                    0 1 a length 1 sub {
                        dup a exch get exch b exch get deepeq not {
                            pop false
                            exit
                        } if
                    } for
                } {
                    false
                } ifelse
            } {
                a b eq
            } ifelse
        } ifelse
    } {
        false
    } ifelse
    end
} bind def

/deepcopy {
    2 dict begin
    /a exch def
    a type /dicttype eq {
        <<
            a keys {
                /k exch def
                k
                a k get deepcopy
            } forall
        >>
    } {
        a type /arraytype eq {
            [
                a {
                    deepcopy
                } forall
            ]
        } {
            a type /stringtype eq {
                a dup length string cvs
            } {
                a
            } ifelse
        } ifelse
    } ifelse
    end
} bind def
