%!PS

/keys { % dict -> array of dict keys
    [ exch
      {
          pop
      } forall
    ]
} bind def

/values { % dict -> array of dict values
    [ exch
      {
          exch pop
      } forall
    ]
} bind def

/toset { % array -> dict of (value, true)
    << exch
       {
           true
       } forall
    >>
} bind def

/map { % array proc -> array
    2 dict begin
    /p exch def
    [ exch
      {
          p
      } forall
    ]
    end
} bind def

/filter { % array proc(bool) -> array
    1 dict begin
    /p exch def
    [ exch
      {
          dup p not
          {
              pop
          } if
      } forall
    ]
    end
} bind def

/reduce { % array proc -> value
    2 dict begin
    /p exch def
    /a exch def
    a 0 get
    1 1 a length 1 sub {
        a exch get
        p
    } for
    end
} bind def

/reduce_init { % value array proc -> value
    2 dict begin
    /p exch def
    /a exch def
    0 1 a length 1 sub {
        a exch get
        p
    } for
    end
} bind def

/enumerate {
    1 dict begin
    /a exch def
    [
      0 1 a length 1 sub {
          dup a exch get
      } for
    ]
    end
} bind def

/enumerate.array {
    1 dict begin
    /a exch def
    [
      0 1 a length 1 sub {
          [ exch dup a exch get ]
      } for
    ]
    end
} bind def

/apush.right { % [a b] c -> [a b c]
    exch
    [ exch aload length 2 add -1 roll ]
} bind def

% [ (a) (b) ] (c) apush (, ) strjoin =

/apop.right { % [a b c] -> [a b] c
    [ exch aload length 1 add 1 roll ] exch
} bind def

% [ (a) (b) (c) ] apop = (, ) strjoin =

/apop.left { % [a b c] -> [b c] a
    dup 0 get exch
    [ exch aload length -1 roll pop ] exch
} bind def

/apush.left { % [b c] a -> [a b c]
    exch % a [b c]
    [ 3 1 roll aload pop ]
} bind def

/apush { apush.right } bind def
/apop { apop.right } bind def

/all { % [a b] proc -> bool
    1 dict begin
    /p exch def
    true exch
    {
        p not {
            pop false
            exit
        } if
    } forall
    end
} bind def

/any { % [a b] proc -> bool
    1 dict begin
    /p exch def
    false exch
    {
        p {
            pop true
            exit
        } if
    } forall
    end
} bind def

/listmax {
    { max } reduce
} bind def

/listmin {
    { min } reduce
} bind def

/unique {
    toset keys
} bind def

/reverse {
    1 dict begin
    dup length /l exch def
    [ exch
      aload pop
      2 1 l {
          -1 roll
      } for
    ]
    end
} bind def

/remove {
    2 dict begin
    /i exch def
    aload length /l exch def
    l i sub -1 roll pop
    l 1 sub array astore
    end
} bind def

/dget {
    3 1 roll
    2 copy
    known {
        get exch pop
    } {
        pop pop
    } ifelse
} bind def

/rotor {
    5 dict begin
    /delta exch def
    /size exch def
    dup length /len exch def
    /ar exch def
    /ix 0 def
    [
        {
            ix size add len gt {
                exit
            } if
            ar ix size getinterval
            /ix ix size delta add add def
        } loop
    ]
    end
} bind def

/set.union {
    1 dict begin
    /s 0 dict def
    2 {
        s copy /s exch def
    } repeat
    s
    end
} bind def

/set.intersection {
    4 dict begin
    /s 0 dict def
    /b exch def
    /a exch def
    a keys {
        /k exch def
        b k known {
            s k true put
        } if
    } forall
    s
    end
} bind def

/set.difference {
    4 dict begin
    /s 0 dict def
    /b exch def
    /a exch def
    a keys {
        /k exch def
        b k known not {
            s k true put
        } if
    } forall
    s
    end
} bind def
