%!PS

/mergesort {
    { mergesort.cmp } mergesort.with_comparator
} bind def

/mergesort.with_keygen { % [ a c b ] { keygen } -> [ a b c ]
    3 dict begin
    /kg exch def
    /arr exch def
    /kl << arr {
                dup kg
            } forall >> def
    arr {
        exch kl exch get exch kl exch get mergesort.cmp
    } mergesort.with_comparator
} bind def

/mergesort.with_keylist { % [ a c b ] [ keylist ] -> [ a b c ]
    4 dict begin
    /kg exch def
    /arr exch def
    /kl <<
            0 1 arr length 1 sub {
                /i exch def
                arr i get
                kg i get
            } for
        >> def
    arr {
        exch kl exch get exch kl exch get mergesort.cmp
    } mergesort.with_comparator
} bind def

/mergesort.with_comparator { % [ a c b ] { comparator } -> [ a b c ]
    5 dict begin
    /cmp where {
        pop
    } {
        /cmp exch def
    } ifelse
    /m exch def
    m length 1 le {
        m
    } {
        /l2 m length 2 idiv def
        /left m 0 l2 getinterval mergesort.with_comparator def
        /right m l2 m length l2 sub getinterval mergesort.with_comparator def
        left right mergesort.merge
    } ifelse
    end
} bind def

/mergesort.merge {
    4 dict begin
    /right exch def
    /left exch def
    /li 0 def
    /ri 0 def
    [
        {
            li left length ge ri right length ge or {
                exit
            } if
            left li get right ri get cmp 0 le {
                left li get
                /li li 1 add def
            } {
                right ri get
                /ri ri 1 add def
            } ifelse
        } loop
        li left length lt {
            left li left length li sub getinterval aload pop
        } if
        ri right length lt {
            right ri right length ri sub getinterval aload pop
        } if
    ]
    end
} bind def

/mergesort.cmp {
    2 copy
    lt {
        pop pop -1
    } {
        gt {
            1
        } {
            0
        } ifelse
    } ifelse
} bind def
